FEBDAQMULTx2/data_analysis/11_charge_injection/old_new_circuit_pcb/scope_waveforms_data/old_pcb_50ohm_140131_130100000.csv

"Record Length",1250,"Points",-1.02000000e-007,-1.00000020e-003
"Sample Interval",4.00000000e-010,s,-1.01600000e-007,1.99999884e-004
"Trigger Point",255,"Samples",-1.01200000e-007,-6.00000173e-004
"Trigger Time",3.29582090e-010,s,-1.00800000e-007,-1.80000026e-003
"",,,-1.00400000e-007,5.99999912e-004
"Horizontal Offset",-1.02000000e-007,s,-1.00000000e-007,9.99999940e-004
,,,-9.96000000e-008,-1.40000023e-003
,,,-9.92000000e-008,5.99999912e-004
,,,-9.88000000e-008,-1.00000020e-003
,,,-9.84000000e-008,-6.00000173e-004
,,,-9.80000000e-008,-2.00000145e-004
,,,-9.76000000e-008,-2.00000145e-004
,,,-9.72000000e-008,5.99999912e-004
,,,-9.68000000e-008,1.99999884e-004
,,,-9.64000000e-008,-6.00000173e-004
,,,-9.60000000e-008,-6.00000173e-004
,,,-9.56000000e-008,1.39999997e-003
,,,-9.52000000e-008,-1.40000023e-003
,,,-9.48000000e-008,-2.00000145e-004
,,,-9.44000000e-008,1.99999884e-004
,,,-9.40000000e-008,1.99999884e-004
,,,-9.36000000e-008,1.99999884e-004
,,,-9.32000000e-008,-6.00000173e-004
,,,-9.28000000e-008,-1.40000023e-003
,,,-9.24000000e-008,-2.00000145e-004
,,,-9.20000000e-008,5.99999912e-004
,,,-9.16000000e-008,-6.00000173e-004
,,,-9.12000000e-008,-2.00000145e-004
,,,-9.08000000e-008,-1.40000023e-003
,,,-9.04000000e-008,-1.40000023e-003
,,,-9.00000000e-008,1.99999884e-004
,,,-8.96000000e-008,1.99999884e-004
,,,-8.92000000e-008,5.99999912e-004
,,,-8.88000000e-008,9.99999940e-004
,,,-8.84000000e-008,-6.00000173e-004
,,,-8.80000000e-008,9.99999940e-004
,,,-8.76000000e-008,5.99999912e-004
,,,-8.72000000e-008,1.99999884e-004
,,,-8.68000000e-008,1.39999997e-003
,,,-8.64000000e-008,1.99999884e-004
,,,-8.60000000e-008,-2.00000145e-004
,,,-8.56000000e-008,9.99999940e-004
,,,-8.52000000e-008,5.99999912e-004
,,,-8.48000000e-008,-6.00000173e-004
,,,-8.44000000e-008,1.39999997e-003
,,,-8.40000000e-008,-2.00000145e-004
,,,-8.36000000e-008,-2.00000145e-004
,,,-8.32000000e-008,5.99999912e-004
,,,-8.28000000e-008,-2.00000145e-004
,,,-8.24000000e-008,-2.00000145e-004
,,,-8.20000000e-008,1.99999884e-004
,,,-8.16000000e-008,1.99999884e-004
,,,-8.12000000e-008,1.99999884e-004
,,,-8.08000000e-008,-1.00000020e-003
,,,-8.04000000e-008,-2.00000145e-004
,,,-8.00000000e-008,-2.00000145e-004
,,,-7.96000000e-008,-1.00000020e-003
,,,-7.92000000e-008,-2.00000145e-004
,,,-7.88000000e-008,-6.00000173e-004
,,,-7.84000000e-008,-1.40000023e-003
,,,-7.80000000e-008,-6.00000173e-004
,,,-7.76000000e-008,-6.00000173e-004
,,,-7.72000000e-008,-2.00000145e-004
,,,-7.68000000e-008,1.99999884e-004
,,,-7.64000000e-008,1.99999884e-004
,,,-7.60000000e-008,5.99999912e-004
,,,-7.56000000e-008,9.99999940e-004
,,,-7.52000000e-008,5.99999912e-004
,,,-7.48000000e-008,9.99999940e-004
,,,-7.44000000e-008,1.39999997e-003
,,,-7.40000000e-008,9.99999940e-004
,,,-7.36000000e-008,1.99999884e-004
,,,-7.32000000e-008,9.99999940e-004
,,,-7.28000000e-008,-2.00000145e-004
,,,-7.24000000e-008,5.99999912e-004
,,,-7.20000000e-008,5.99999912e-004
,,,-7.16000000e-008,-1.80000026e-003
,,,-7.12000000e-008,-1.40000023e-003
,,,-7.08000000e-008,1.99999884e-004
,,,-7.04000000e-008,-2.20000029e-003
,,,-7.00000000e-008,-6.00000173e-004
,,,-6.96000000e-008,-1.80000026e-003
,,,-6.92000000e-008,-1.00000020e-003
,,,-6.88000000e-008,-6.00000173e-004
,,,-6.84000000e-008,-1.00000020e-003
,,,-6.80000000e-008,-1.80000026e-003
,,,-6.76000000e-008,-2.00000145e-004
,,,-6.72000000e-008,-6.00000173e-004
,,,-6.68000000e-008,-6.00000173e-004
,,,-6.64000000e-008,1.99999884e-004
,,,-6.60000000e-008,1.99999884e-004
,,,-6.56000000e-008,5.99999912e-004
,,,-6.52000000e-008,-2.00000145e-004
,,,-6.48000000e-008,1.99999884e-004
,,,-6.44000000e-008,5.99999912e-004
,,,-6.40000000e-008,9.99999940e-004
,,,-6.36000000e-008,-1.00000020e-003
,,,-6.32000000e-008,1.39999997e-003
,,,-6.28000000e-008,1.39999997e-003
,,,-6.24000000e-008,5.99999912e-004
,,,-6.20000000e-008,1.39999997e-003
,,,-6.16000000e-008,9.99999940e-004
,,,-6.12000000e-008,1.99999884e-004
,,,-6.08000000e-008,9.99999940e-004
,,,-6.04000000e-008,-6.00000173e-004
,,,-6.00000000e-008,5.99999912e-004
,,,-5.96000000e-008,-1.00000020e-003
,,,-5.92000000e-008,-1.00000020e-003
,,,-5.88000000e-008,-6.00000173e-004
,,,-5.84000000e-008,-1.40000023e-003
,,,-5.80000000e-008,-1.80000026e-003
,,,-5.76000000e-008,-1.40000023e-003
,,,-5.72000000e-008,-1.00000020e-003
,,,-5.68000000e-008,-1.00000020e-003
,,,-5.64000000e-008,-1.00000020e-003
,,,-5.60000000e-008,-6.00000173e-004
,,,-5.56000000e-008,-2.00000145e-004
,,,-5.52000000e-008,-2.00000145e-004
,,,-5.48000000e-008,-1.00000020e-003
,,,-5.44000000e-008,-1.40000023e-003
,,,-5.40000000e-008,1.99999884e-004
,,,-5.36000000e-008,1.99999884e-004
,,,-5.32000000e-008,-2.00000145e-004
,,,-5.28000000e-008,5.99999912e-004
,,,-5.24000000e-008,-2.00000145e-004
,,,-5.20000000e-008,9.99999940e-004
,,,-5.16000000e-008,1.99999884e-004
,,,-5.12000000e-008,-2.00000145e-004
,,,-5.08000000e-008,-6.00000173e-004
,,,-5.04000000e-008,-6.00000173e-004
,,,-5.00000000e-008,-1.00000020e-003
,,,-4.96000000e-008,1.99999884e-004
,,,-4.92000000e-008,-1.00000020e-003
,,,-4.88000000e-008,5.99999912e-004
,,,-4.84000000e-008,1.99999884e-004
,,,-4.80000000e-008,-2.00000145e-004
,,,-4.76000000e-008,1.99999884e-004
,,,-4.72000000e-008,-6.00000173e-004
,,,-4.68000000e-008,-1.00000020e-003
,,,-4.64000000e-008,-2.00000145e-004
,,,-4.60000000e-008,1.99999884e-004
,,,-4.56000000e-008,-6.00000173e-004
,,,-4.52000000e-008,-2.00000145e-004
,,,-4.48000000e-008,-1.00000020e-003
,,,-4.44000000e-008,-1.00000020e-003
,,,-4.40000000e-008,-1.00000020e-003
,,,-4.36000000e-008,-6.00000173e-004
,,,-4.32000000e-008,-6.00000173e-004
,,,-4.28000000e-008,5.99999912e-004
,,,-4.24000000e-008,-6.00000173e-004
,,,-4.20000000e-008,1.99999884e-004
,,,-4.16000000e-008,9.99999940e-004
,,,-4.12000000e-008,5.99999912e-004
,,,-4.08000000e-008,1.99999884e-004
,,,-4.04000000e-008,1.99999884e-004
,,,-4.00000000e-008,-1.40000023e-003
,,,-3.96000000e-008,-1.00000020e-003
,,,-3.92000000e-008,5.99999912e-004
,,,-3.88000000e-008,-6.00000173e-004
,,,-3.84000000e-008,1.99999884e-004
,,,-3.80000000e-008,-2.00000145e-004
,,,-3.76000000e-008,-1.00000020e-003
,,,-3.72000000e-008,-1.40000023e-003
,,,-3.68000000e-008,-6.00000173e-004
,,,-3.64000000e-008,-1.00000020e-003
,,,-3.60000000e-008,-1.40000023e-003
,,,-3.56000000e-008,-1.00000020e-003
,,,-3.52000000e-008,-2.00000145e-004
,,,-3.48000000e-008,-1.00000020e-003
,,,-3.44000000e-008,-6.00000173e-004
,,,-3.40000000e-008,-6.00000173e-004
,,,-3.36000000e-008,5.99999912e-004
,,,-3.32000000e-008,1.39999997e-003
,,,-3.28000000e-008,-2.00000145e-004
,,,-3.24000000e-008,-2.00000145e-004
,,,-3.20000000e-008,9.99999940e-004
,,,-3.16000000e-008,5.99999912e-004
,,,-3.12000000e-008,-2.00000145e-004
,,,-3.08000000e-008,-2.00000145e-004
,,,-3.04000000e-008,9.99999940e-004
,,,-3.00000000e-008,-2.00000145e-004
,,,-2.96000000e-008,-6.00000173e-004
,,,-2.92000000e-008,9.99999940e-004
,,,-2.88000000e-008,1.99999884e-004
,,,-2.84000000e-008,-1.00000020e-003
,,,-2.80000000e-008,5.99999912e-004
,,,-2.76000000e-008,9.99999940e-004
,,,-2.72000000e-008,-2.00000145e-004
,,,-2.68000000e-008,-2.00000145e-004
,,,-2.64000000e-008,-2.00000145e-004
,,,-2.60000000e-008,-1.80000026e-003
,,,-2.56000000e-008,-6.00000173e-004
,,,-2.52000000e-008,-2.00000145e-004
,,,-2.48000000e-008,1.99999884e-004
,,,-2.44000000e-008,-2.20000029e-003
,,,-2.40000000e-008,-1.40000023e-003
,,,-2.36000000e-008,1.99999884e-004
,,,-2.32000000e-008,5.99999912e-004
,,,-2.28000000e-008,5.99999912e-004
,,,-2.24000000e-008,-2.00000145e-004
,,,-2.20000000e-008,5.99999912e-004
,,,-2.16000000e-008,5.99999912e-004
,,,-2.12000000e-008,-2.00000145e-004
,,,-2.08000000e-008,1.99999884e-004
,,,-2.04000000e-008,-1.00000020e-003
,,,-2.00000000e-008,1.39999997e-003
,,,-1.96000000e-008,1.39999997e-003
,,,-1.92000000e-008,-6.00000173e-004
,,,-1.88000000e-008,1.99999884e-004
,,,-1.84000000e-008,9.99999940e-004
,,,-1.80000000e-008,1.99999884e-004
,,,-1.76000000e-008,5.99999912e-004
,,,-1.72000000e-008,-6.00000173e-004
,,,-1.68000000e-008,-6.00000173e-004
,,,-1.64000000e-008,-6.00000173e-004
,,,-1.60000000e-008,1.99999884e-004
,,,-1.56000000e-008,-1.40000023e-003
,,,-1.52000000e-008,-1.00000020e-003
,,,-1.48000000e-008,-6.00000173e-004
,,,-1.44000000e-008,-2.00000145e-004
,,,-1.40000000e-008,-2.00000145e-004
,,,-1.36000000e-008,-1.00000020e-003
,,,-1.32000000e-008,-6.00000173e-004
,,,-1.28000000e-008,-2.00000145e-004
,,,-1.24000000e-008,-2.00000145e-004
,,,-1.20000000e-008,-1.00000020e-003
,,,-1.16000000e-008,1.99999884e-004
,,,-1.12000000e-008,5.99999912e-004
,,,-1.08000000e-008,-1.40000023e-003
,,,-1.04000000e-008,-6.00000173e-004
,,,-1.00000000e-008,-1.80000026e-003
,,,-9.60000000e-009,-2.00000145e-004
,,,-9.20000000e-009,1.99999884e-004
,,,-8.80000000e-009,-2.00000145e-004
,,,-8.40000000e-009,5.99999912e-004
,,,-8.00000000e-009,5.99999912e-004
,,,-7.60000000e-009,1.99999884e-004
,,,-7.20000000e-009,-6.00000173e-004
,,,-6.80000000e-009,-2.00000145e-004
,,,-6.40000000e-009,1.99999884e-004
,,,-6.00000000e-009,1.99999884e-004
,,,-5.60000000e-009,-1.00000020e-003
,,,-5.20000000e-009,-6.00000173e-004
,,,-4.80000000e-009,-6.00000173e-004
,,,-4.40000000e-009,-2.00000145e-004
,,,-4.00000000e-009,-1.00000020e-003
,,,-3.60000000e-009,-6.00000173e-004
,,,-3.20000000e-009,-1.00000020e-003
,,,-2.80000000e-009,-2.20000029e-003
,,,-2.40000000e-009,-2.00000145e-004
,,,-2.00000000e-009,-1.00000020e-003
,,,-1.60000000e-009,-1.80000026e-003
,,,-1.20000000e-009,-1.00000020e-003
,,,-8.00000000e-010,-2.00000145e-004
,,,-4.00000000e-010,1.39999997e-003
,,,0.00000000e+000,3.40000011e-003
,,,4.00000000e-010,5.00000022e-003
,,,8.00000000e-010,7.00000037e-003
,,,1.20000000e-009,9.80000056e-003
,,,1.60000000e-009,1.38000008e-002
,,,2.00000000e-009,1.62000010e-002
,,,2.40000000e-009,1.62000010e-002
,,,2.80000000e-009,1.82000012e-002
,,,3.20000000e-009,1.74000011e-002
,,,3.60000000e-009,1.66000010e-002
,,,4.00000000e-009,1.70000011e-002
,,,4.40000000e-009,1.62000010e-002
,,,4.80000000e-009,1.50000009e-002
,,,5.20000000e-009,1.50000009e-002
,,,5.60000000e-009,1.38000008e-002
,,,6.00000000e-009,1.34000008e-002
,,,6.40000000e-009,1.30000008e-002
,,,6.80000000e-009,1.10000006e-002
,,,7.20000000e-009,1.02000006e-002
,,,7.60000000e-009,9.80000056e-003
,,,8.00000000e-009,8.60000048e-003
,,,8.40000000e-009,8.60000048e-003
,,,8.80000000e-009,7.80000042e-003
,,,9.20000000e-009,8.20000045e-003
,,,9.60000000e-009,8.20000045e-003
,,,1.00000000e-008,7.40000039e-003
,,,1.04000000e-008,7.40000039e-003
,,,1.08000000e-008,7.00000037e-003
,,,1.12000000e-008,6.60000034e-003
,,,1.16000000e-008,5.80000028e-003
,,,1.20000000e-008,4.20000017e-003
,,,1.24000000e-008,5.40000025e-003
,,,1.28000000e-008,5.00000022e-003
,,,1.32000000e-008,5.00000022e-003
,,,1.36000000e-008,3.80000014e-003
,,,1.40000000e-008,3.00000008e-003
,,,1.44000000e-008,3.80000014e-003
,,,1.48000000e-008,3.80000014e-003
,,,1.52000000e-008,3.00000008e-003
,,,1.56000000e-008,3.40000011e-003
,,,1.60000000e-008,3.00000008e-003
,,,1.64000000e-008,3.00000008e-003
,,,1.68000000e-008,2.20000003e-003
,,,1.72000000e-008,1.80000000e-003
,,,1.76000000e-008,1.39999997e-003
,,,1.80000000e-008,1.39999997e-003
,,,1.84000000e-008,1.99999884e-004
,,,1.88000000e-008,1.80000000e-003
,,,1.92000000e-008,-6.00000173e-004
,,,1.96000000e-008,9.99999940e-004
,,,2.00000000e-008,1.99999884e-004
,,,2.04000000e-008,-1.00000020e-003
,,,2.08000000e-008,5.99999912e-004
,,,2.12000000e-008,-2.00000145e-004
,,,2.16000000e-008,-2.00000145e-004
,,,2.20000000e-008,9.99999940e-004
,,,2.24000000e-008,2.20000003e-003
,,,2.28000000e-008,2.20000003e-003
,,,2.32000000e-008,3.40000011e-003
,,,2.36000000e-008,4.20000017e-003
,,,2.40000000e-008,4.20000017e-003
,,,2.44000000e-008,5.40000025e-003
,,,2.48000000e-008,4.20000017e-003
,,,2.52000000e-008,3.00000008e-003
,,,2.56000000e-008,2.60000005e-003
,,,2.60000000e-008,2.20000003e-003
,,,2.64000000e-008,1.80000000e-003
,,,2.68000000e-008,1.39999997e-003
,,,2.72000000e-008,1.99999884e-004
,,,2.76000000e-008,-6.00000173e-004
,,,2.80000000e-008,-1.00000020e-003
,,,2.84000000e-008,-1.40000023e-003
,,,2.88000000e-008,-2.60000031e-003
,,,2.92000000e-008,-1.40000023e-003
,,,2.96000000e-008,-3.00000034e-003
,,,3.00000000e-008,-2.20000029e-003
,,,3.04000000e-008,-1.80000026e-003
,,,3.08000000e-008,-3.00000034e-003
,,,3.12000000e-008,-1.80000026e-003
,,,3.16000000e-008,-3.00000034e-003
,,,3.20000000e-008,-3.40000037e-003
,,,3.24000000e-008,-3.80000040e-003
,,,3.28000000e-008,-3.00000034e-003
,,,3.32000000e-008,-1.80000026e-003
,,,3.36000000e-008,-1.80000026e-003
,,,3.40000000e-008,-1.40000023e-003
,,,3.44000000e-008,1.99999884e-004
,,,3.48000000e-008,-2.00000145e-004
,,,3.52000000e-008,-2.00000145e-004
,,,3.56000000e-008,-2.00000145e-004
,,,3.60000000e-008,-2.00000145e-004
,,,3.64000000e-008,-1.80000026e-003
,,,3.68000000e-008,-2.00000145e-004
,,,3.72000000e-008,-2.00000145e-004
,,,3.76000000e-008,-6.00000173e-004
,,,3.80000000e-008,-6.00000173e-004
,,,3.84000000e-008,-1.80000026e-003
,,,3.88000000e-008,-2.00000145e-004
,,,3.92000000e-008,-6.00000173e-004
,,,3.96000000e-008,-1.80000026e-003
,,,4.00000000e-008,-2.60000031e-003
,,,4.04000000e-008,-2.60000031e-003
,,,4.08000000e-008,-3.00000034e-003
,,,4.12000000e-008,-1.80000026e-003
,,,4.16000000e-008,-2.60000031e-003
,,,4.20000000e-008,-2.60000031e-003
,,,4.24000000e-008,-1.40000023e-003
,,,4.28000000e-008,-1.80000026e-003
,,,4.32000000e-008,-2.60000031e-003
,,,4.36000000e-008,-1.40000023e-003
,,,4.40000000e-008,-1.40000023e-003
,,,4.44000000e-008,-2.20000029e-003
,,,4.48000000e-008,-1.80000026e-003
,,,4.52000000e-008,-3.00000034e-003
,,,4.56000000e-008,-2.60000031e-003
,,,4.60000000e-008,-1.40000023e-003
,,,4.64000000e-008,-1.40000023e-003
,,,4.68000000e-008,-1.40000023e-003
,,,4.72000000e-008,-6.00000173e-004
,,,4.76000000e-008,-2.20000029e-003
,,,4.80000000e-008,-6.00000173e-004
,,,4.84000000e-008,1.99999884e-004
,,,4.88000000e-008,-6.00000173e-004
,,,4.92000000e-008,-2.00000145e-004
,,,4.96000000e-008,-6.00000173e-004
,,,5.00000000e-008,-2.00000145e-004
,,,5.04000000e-008,-1.40000023e-003
,,,5.08000000e-008,-1.00000020e-003
,,,5.12000000e-008,-1.40000023e-003
,,,5.16000000e-008,-1.00000020e-003
,,,5.20000000e-008,-1.40000023e-003
,,,5.24000000e-008,-2.00000145e-004
,,,5.28000000e-008,-1.00000020e-003
,,,5.32000000e-008,-1.40000023e-003
,,,5.36000000e-008,-1.00000020e-003
,,,5.40000000e-008,-6.00000173e-004
,,,5.44000000e-008,-1.00000020e-003
,,,5.48000000e-008,1.99999884e-004
,,,5.52000000e-008,-2.00000145e-004
,,,5.56000000e-008,-2.00000145e-004
,,,5.60000000e-008,5.99999912e-004
,,,5.64000000e-008,-1.00000020e-003
,,,5.68000000e-008,-6.00000173e-004
,,,5.72000000e-008,-1.40000023e-003
,,,5.76000000e-008,1.99999884e-004
,,,5.80000000e-008,9.99999940e-004
,,,5.84000000e-008,5.99999912e-004
,,,5.88000000e-008,5.99999912e-004
,,,5.92000000e-008,1.99999884e-004
,,,5.96000000e-008,-1.40000023e-003
,,,6.00000000e-008,1.99999884e-004
,,,6.04000000e-008,-2.00000145e-004
,,,6.08000000e-008,-2.00000145e-004
,,,6.12000000e-008,-1.00000020e-003
,,,6.16000000e-008,1.99999884e-004
,,,6.20000000e-008,-6.00000173e-004
,,,6.24000000e-008,5.99999912e-004
,,,6.28000000e-008,9.99999940e-004
,,,6.32000000e-008,-1.00000020e-003
,,,6.36000000e-008,-1.80000026e-003
,,,6.40000000e-008,-2.00000145e-004
,,,6.44000000e-008,-1.40000023e-003
,,,6.48000000e-008,-2.00000145e-004
,,,6.52000000e-008,-2.00000145e-004
,,,6.56000000e-008,1.99999884e-004
,,,6.60000000e-008,9.99999940e-004
,,,6.64000000e-008,-2.00000145e-004
,,,6.68000000e-008,-2.00000145e-004
,,,6.72000000e-008,1.99999884e-004
,,,6.76000000e-008,1.99999884e-004
,,,6.80000000e-008,-2.00000145e-004
,,,6.84000000e-008,1.99999884e-004
,,,6.88000000e-008,1.99999884e-004
,,,6.92000000e-008,-1.00000020e-003
,,,6.96000000e-008,-2.00000145e-004
,,,7.00000000e-008,-1.40000023e-003
,,,7.04000000e-008,-2.00000145e-004
,,,7.08000000e-008,-6.00000173e-004
,,,7.12000000e-008,-2.00000145e-004
,,,7.16000000e-008,1.99999884e-004
,,,7.20000000e-008,-1.40000023e-003
,,,7.24000000e-008,-1.40000023e-003
,,,7.28000000e-008,9.99999940e-004
,,,7.32000000e-008,-1.80000026e-003
,,,7.36000000e-008,-1.00000020e-003
,,,7.40000000e-008,1.99999884e-004
,,,7.44000000e-008,-2.20000029e-003
,,,7.48000000e-008,-6.00000173e-004
,,,7.52000000e-008,9.99999940e-004
,,,7.56000000e-008,-2.20000029e-003
,,,7.60000000e-008,-2.00000145e-004
,,,7.64000000e-008,5.99999912e-004
,,,7.68000000e-008,-6.00000173e-004
,,,7.72000000e-008,1.80000000e-003
,,,7.76000000e-008,5.99999912e-004
,,,7.80000000e-008,-1.00000020e-003
,,,7.84000000e-008,-6.00000173e-004
,,,7.88000000e-008,-1.00000020e-003
,,,7.92000000e-008,-1.00000020e-003
,,,7.96000000e-008,9.99999940e-004
,,,8.00000000e-008,-2.00000145e-004
,,,8.04000000e-008,9.99999940e-004
,,,8.08000000e-008,1.39999997e-003
,,,8.12000000e-008,1.99999884e-004
,,,8.16000000e-008,-6.00000173e-004
,,,8.20000000e-008,1.80000000e-003
,,,8.24000000e-008,-2.00000145e-004
,,,8.28000000e-008,1.99999884e-004
,,,8.32000000e-008,-2.00000145e-004
,,,8.36000000e-008,-6.00000173e-004
,,,8.40000000e-008,-1.40000023e-003
,,,8.44000000e-008,-2.00000145e-004
,,,8.48000000e-008,-1.40000023e-003
,,,8.52000000e-008,5.99999912e-004
,,,8.56000000e-008,1.99999884e-004
,,,8.60000000e-008,-1.00000020e-003
,,,8.64000000e-008,-2.00000145e-004
,,,8.68000000e-008,9.99999940e-004
,,,8.72000000e-008,-2.00000145e-004
,,,8.76000000e-008,1.99999884e-004
,,,8.80000000e-008,-6.00000173e-004
,,,8.84000000e-008,-2.00000145e-004
,,,8.88000000e-008,1.99999884e-004
,,,8.92000000e-008,5.99999912e-004
,,,8.96000000e-008,5.99999912e-004
,,,9.00000000e-008,-2.00000145e-004
,,,9.04000000e-008,1.99999884e-004
,,,9.08000000e-008,-2.00000145e-004
,,,9.12000000e-008,-2.00000145e-004
,,,9.16000000e-008,-1.80000026e-003
,,,9.20000000e-008,9.99999940e-004
,,,9.24000000e-008,-6.00000173e-004
,,,9.28000000e-008,-1.40000023e-003
,,,9.32000000e-008,-6.00000173e-004
,,,9.36000000e-008,5.99999912e-004
,,,9.40000000e-008,-1.40000023e-003
,,,9.44000000e-008,-2.00000145e-004
,,,9.48000000e-008,-2.00000145e-004
,,,9.52000000e-008,1.99999884e-004
,,,9.56000000e-008,-2.00000145e-004
,,,9.60000000e-008,-1.40000023e-003
,,,9.64000000e-008,-1.00000020e-003
,,,9.68000000e-008,-6.00000173e-004
,,,9.72000000e-008,1.99999884e-004
,,,9.76000000e-008,-2.00000145e-004
,,,9.80000000e-008,-6.00000173e-004
,,,9.84000000e-008,-1.00000020e-003
,,,9.88000000e-008,-1.80000026e-003
,,,9.92000000e-008,-1.80000026e-003
,,,9.96000000e-008,1.99999884e-004
,,,1.00000000e-007,-1.40000023e-003
,,,1.00400000e-007,-5.00000048e-003
,,,1.00800000e-007,-7.00000063e-003
,,,1.01200000e-007,-9.40000080e-003
,,,1.01600000e-007,-1.26000010e-002
,,,1.02000000e-007,-1.46000012e-002
,,,1.02400000e-007,-1.54000012e-002
,,,1.02800000e-007,-1.70000013e-002
,,,1.03200000e-007,-1.74000014e-002
,,,1.03600000e-007,-1.70000013e-002
,,,1.04000000e-007,-1.54000012e-002
,,,1.04400000e-007,-1.66000013e-002
,,,1.04800000e-007,-1.66000013e-002
,,,1.05200000e-007,-1.50000012e-002
,,,1.05600000e-007,-1.54000012e-002
,,,1.06000000e-007,-1.42000011e-002
,,,1.06400000e-007,-1.30000011e-002
,,,1.06800000e-007,-1.22000010e-002
,,,1.07200000e-007,-1.22000010e-002
,,,1.07600000e-007,-9.80000082e-003
,,,1.08000000e-007,-1.18000010e-002
,,,1.08400000e-007,-1.02000009e-002
,,,1.08800000e-007,-8.60000074e-003
,,,1.09200000e-007,-9.40000080e-003
,,,1.09600000e-007,-8.60000074e-003
,,,1.10000000e-007,-8.20000071e-003
,,,1.10400000e-007,-7.80000068e-003
,,,1.10800000e-007,-6.20000057e-003
,,,1.11200000e-007,-5.40000051e-003
,,,1.11600000e-007,-5.80000054e-003
,,,1.12000000e-007,-4.20000043e-003
,,,1.12400000e-007,-4.20000043e-003
,,,1.12800000e-007,-5.40000051e-003
,,,1.13200000e-007,-3.40000037e-003
,,,1.13600000e-007,-4.20000043e-003
,,,1.14000000e-007,-3.00000034e-003
,,,1.14400000e-007,-2.60000031e-003
,,,1.14800000e-007,-3.80000040e-003
,,,1.15200000e-007,-3.80000040e-003
,,,1.15600000e-007,-2.20000029e-003
,,,1.16000000e-007,-3.80000040e-003
,,,1.16400000e-007,-3.00000034e-003
,,,1.16800000e-007,-2.60000031e-003
,,,1.17200000e-007,-2.60000031e-003
,,,1.17600000e-007,-3.80000040e-003
