FEBDAQMULTx2/data_analysis/14_scope_waveforms/tektronix_mso5204/20220321_data_58V/sample3.csv

"Record Length",100000,"Points",-7.99600000e-006,1.20000007e-003
"Sample Interval",2.00000000e-010,s,-7.99580000e-006,-1.20000003e-003
"Trigger Point",39980,"Samples",-7.99560000e-006,1.20000007e-003
"Trigger Time",1.13489510e-010,s,-7.99540000e-006,1.86264515e-011
"",,,-7.99520000e-006,1.86264515e-011
"Horizontal Offset",-7.99600000e-006,s,-7.99500000e-006,1.20000007e-003
,,,-7.99480000e-006,1.86264515e-011
,,,-7.99460000e-006,1.86264515e-011
,,,-7.99440000e-006,1.86264515e-011
,,,-7.99420000e-006,1.86264515e-011
,,,-7.99400000e-006,1.20000007e-003
,,,-7.99380000e-006,-2.40000008e-003
,,,-7.99360000e-006,-1.20000003e-003
,,,-7.99340000e-006,1.20000007e-003
,,,-7.99320000e-006,-1.20000003e-003
,,,-7.99300000e-006,-1.20000003e-003
,,,-7.99280000e-006,-1.20000003e-003
,,,-7.99260000e-006,-1.20000003e-003
,,,-7.99240000e-006,-1.20000003e-003
,,,-7.99220000e-006,-1.20000003e-003
,,,-7.99200000e-006,1.86264515e-011
,,,-7.99180000e-006,-1.20000003e-003
,,,-7.99160000e-006,-1.20000003e-003
,,,-7.99140000e-006,1.20000007e-003
,,,-7.99120000e-006,-1.20000003e-003
,,,-7.99100000e-006,-1.20000003e-003
,,,-7.99080000e-006,1.86264515e-011
,,,-7.99060000e-006,-1.20000003e-003
,,,-7.99040000e-006,1.86264515e-011
,,,-7.99020000e-006,1.20000007e-003
,,,-7.99000000e-006,1.20000007e-003
,,,-7.98980000e-006,1.86264515e-011
,,,-7.98960000e-006,-1.20000003e-003
,,,-7.98940000e-006,1.20000007e-003
,,,-7.98920000e-006,-1.20000003e-003
,,,-7.98900000e-006,-1.20000003e-003
,,,-7.98880000e-006,-1.20000003e-003
,,,-7.98860000e-006,-1.20000003e-003
,,,-7.98840000e-006,-2.40000008e-003
,,,-7.98820000e-006,-1.20000003e-003
,,,-7.98800000e-006,-1.20000003e-003
,,,-7.98780000e-006,-2.40000008e-003
,,,-7.98760000e-006,-1.20000003e-003
,,,-7.98740000e-006,1.86264515e-011
,,,-7.98720000e-006,1.86264515e-011
,,,-7.98700000e-006,-3.60000012e-003
,,,-7.98680000e-006,1.86264515e-011
,,,-7.98660000e-006,1.86264515e-011
,,,-7.98640000e-006,-1.20000003e-003
,,,-7.98620000e-006,-1.20000003e-003
,,,-7.98600000e-006,-1.20000003e-003
,,,-7.98580000e-006,-2.40000008e-003
,,,-7.98560000e-006,1.86264515e-011
,,,-7.98540000e-006,1.86264515e-011
,,,-7.98520000e-006,-2.40000008e-003
,,,-7.98500000e-006,1.20000007e-003
,,,-7.98480000e-006,1.20000007e-003
,,,-7.98460000e-006,1.86264515e-011
,,,-7.98440000e-006,1.20000007e-003
,,,-7.98420000e-006,-1.20000003e-003
,,,-7.98400000e-006,1.86264515e-011
,,,-7.98380000e-006,1.86264515e-011
,,,-7.98360000e-006,-1.20000003e-003
,,,-7.98340000e-006,1.86264515e-011
,,,-7.98320000e-006,-1.20000003e-003
,,,-7.98300000e-006,1.86264515e-011
,,,-7.98280000e-006,-1.20000003e-003
,,,-7.98260000e-006,-1.20000003e-003
,,,-7.98240000e-006,-1.20000003e-003
,,,-7.98220000e-006,-1.20000003e-003
,,,-7.98200000e-006,1.86264515e-011
,,,-7.98180000e-006,-1.20000003e-003
,,,-7.98160000e-006,-1.20000003e-003
,,,-7.98140000e-006,-1.20000003e-003
,,,-7.98120000e-006,-2.40000008e-003
,,,-7.98100000e-006,1.20000007e-003
,,,-7.98080000e-006,-1.20000003e-003
,,,-7.98060000e-006,-3.60000012e-003
,,,-7.98040000e-006,1.86264515e-011
,,,-7.98020000e-006,1.86264515e-011
,,,-7.98000000e-006,1.86264515e-011
,,,-7.97980000e-006,-1.20000003e-003
,,,-7.97960000e-006,1.86264515e-011
,,,-7.97940000e-006,1.86264515e-011
,,,-7.97920000e-006,-1.20000003e-003
,,,-7.97900000e-006,1.20000007e-003
,,,-7.97880000e-006,2.40000011e-003
,,,-7.97860000e-006,1.86264515e-011
,,,-7.97840000e-006,1.20000007e-003
,,,-7.97820000e-006,1.86264515e-011
,,,-7.97800000e-006,1.20000007e-003
,,,-7.97780000e-006,-1.20000003e-003
,,,-7.97760000e-006,-1.20000003e-003
,,,-7.97740000e-006,3.60000016e-003
,,,-7.97720000e-006,-1.20000003e-003
,,,-7.97700000e-006,1.86264515e-011
,,,-7.97680000e-006,1.86264515e-011
,,,-7.97660000e-006,-2.40000008e-003
,,,-7.97640000e-006,-2.40000008e-003
,,,-7.97620000e-006,-1.20000003e-003
,,,-7.97600000e-006,1.20000007e-003
,,,-7.97580000e-006,1.86264515e-011
,,,-7.97560000e-006,-1.20000003e-003
,,,-7.97540000e-006,-1.20000003e-003
,,,-7.97520000e-006,-3.60000012e-003
,,,-7.97500000e-006,-1.20000003e-003
,,,-7.97480000e-006,1.20000007e-003
,,,-7.97460000e-006,1.20000007e-003
,,,-7.97440000e-006,1.20000007e-003
,,,-7.97420000e-006,1.86264515e-011
,,,-7.97400000e-006,1.86264515e-011
,,,-7.97380000e-006,1.20000007e-003
,,,-7.97360000e-006,-1.20000003e-003
,,,-7.97340000e-006,1.20000007e-003
,,,-7.97320000e-006,1.20000007e-003
,,,-7.97300000e-006,-2.40000008e-003
,,,-7.97280000e-006,1.20000007e-003
,,,-7.97260000e-006,1.86264515e-011
,,,-7.97240000e-006,-2.40000008e-003
,,,-7.97220000e-006,1.20000007e-003
,,,-7.97200000e-006,1.20000007e-003
,,,-7.97180000e-006,1.20000007e-003
,,,-7.97160000e-006,1.20000007e-003
,,,-7.97140000e-006,1.20000007e-003
,,,-7.97120000e-006,1.20000007e-003
,,,-7.97100000e-006,1.20000007e-003
,,,-7.97080000e-006,1.20000007e-003
,,,-7.97060000e-006,1.86264515e-011
,,,-7.97040000e-006,1.86264515e-011
,,,-7.97020000e-006,1.86264515e-011
,,,-7.97000000e-006,-1.20000003e-003
,,,-7.96980000e-006,1.20000007e-003
,,,-7.96960000e-006,-1.20000003e-003
,,,-7.96940000e-006,1.86264515e-011
,,,-7.96920000e-006,1.20000007e-003
,,,-7.96900000e-006,1.86264515e-011
,,,-7.96880000e-006,1.20000007e-003
,,,-7.96860000e-006,1.86264515e-011
,,,-7.96840000e-006,1.86264515e-011
,,,-7.96820000e-006,1.20000007e-003
,,,-7.96800000e-006,1.86264515e-011
,,,-7.96780000e-006,1.20000007e-003
,,,-7.96760000e-006,1.86264515e-011
,,,-7.96740000e-006,1.20000007e-003
,,,-7.96720000e-006,1.20000007e-003
,,,-7.96700000e-006,1.20000007e-003
,,,-7.96680000e-006,1.20000007e-003
,,,-7.96660000e-006,1.20000007e-003
,,,-7.96640000e-006,1.20000007e-003
,,,-7.96620000e-006,-1.20000003e-003
,,,-7.96600000e-006,1.86264515e-011
,,,-7.96580000e-006,1.86264515e-011
,,,-7.96560000e-006,-1.20000003e-003
,,,-7.96540000e-006,-1.20000003e-003
,,,-7.96520000e-006,-2.40000008e-003
,,,-7.96500000e-006,1.20000007e-003
,,,-7.96480000e-006,1.86264515e-011
,,,-7.96460000e-006,-1.20000003e-003
,,,-7.96440000e-006,1.86264515e-011
,,,-7.96420000e-006,1.20000007e-003
,,,-7.96400000e-006,1.20000007e-003
,,,-7.96380000e-006,1.20000007e-003
,,,-7.96360000e-006,1.20000007e-003
,,,-7.96340000e-006,1.20000007e-003
,,,-7.96320000e-006,1.86264515e-011
,,,-7.96300000e-006,-1.20000003e-003
,,,-7.96280000e-006,1.20000007e-003
,,,-7.96260000e-006,1.20000007e-003
,,,-7.96240000e-006,2.40000011e-003
,,,-7.96220000e-006,1.86264515e-011
,,,-7.96200000e-006,1.86264515e-011
,,,-7.96180000e-006,1.20000007e-003
,,,-7.96160000e-006,1.20000007e-003
,,,-7.96140000e-006,-1.20000003e-003
,,,-7.96120000e-006,1.86264515e-011
,,,-7.96100000e-006,2.40000011e-003
,,,-7.96080000e-006,1.20000007e-003
,,,-7.96060000e-006,-1.20000003e-003
,,,-7.96040000e-006,1.20000007e-003
,,,-7.96020000e-006,1.20000007e-003
,,,-7.96000000e-006,1.86264515e-011
,,,-7.95980000e-006,1.20000007e-003
,,,-7.95960000e-006,1.20000007e-003
,,,-7.95940000e-006,1.86264515e-011
,,,-7.95920000e-006,-2.40000008e-003
,,,-7.95900000e-006,1.86264515e-011
,,,-7.95880000e-006,1.86264515e-011
,,,-7.95860000e-006,-2.40000008e-003
,,,-7.95840000e-006,1.20000007e-003
,,,-7.95820000e-006,2.40000011e-003
,,,-7.95800000e-006,-1.20000003e-003
,,,-7.95780000e-006,1.20000007e-003
,,,-7.95760000e-006,1.86264515e-011
,,,-7.95740000e-006,1.20000007e-003
,,,-7.95720000e-006,1.20000007e-003
,,,-7.95700000e-006,1.20000007e-003
,,,-7.95680000e-006,1.20000007e-003
,,,-7.95660000e-006,1.86264515e-011
,,,-7.95640000e-006,2.40000011e-003
,,,-7.95620000e-006,1.20000007e-003
,,,-7.95600000e-006,1.86264515e-011
,,,-7.95580000e-006,2.40000011e-003
,,,-7.95560000e-006,1.20000007e-003
,,,-7.95540000e-006,1.86264515e-011
,,,-7.95520000e-006,2.40000011e-003
,,,-7.95500000e-006,2.40000011e-003
,,,-7.95480000e-006,1.86264515e-011
,,,-7.95460000e-006,1.20000007e-003
,,,-7.95440000e-006,-1.20000003e-003
,,,-7.95420000e-006,1.20000007e-003
,,,-7.95400000e-006,1.20000007e-003
,,,-7.95380000e-006,-1.20000003e-003
,,,-7.95360000e-006,-1.20000003e-003
,,,-7.95340000e-006,-1.20000003e-003
,,,-7.95320000e-006,-1.20000003e-003
,,,-7.95300000e-006,1.86264515e-011
,,,-7.95280000e-006,1.20000007e-003
,,,-7.95260000e-006,-1.20000003e-003
,,,-7.95240000e-006,-2.40000008e-003
,,,-7.95220000e-006,-2.40000008e-003
,,,-7.95200000e-006,-1.20000003e-003
,,,-7.95180000e-006,1.86264515e-011
,,,-7.95160000e-006,-1.20000003e-003
,,,-7.95140000e-006,-1.20000003e-003
,,,-7.95120000e-006,1.20000007e-003
,,,-7.95100000e-006,1.86264515e-011
,,,-7.95080000e-006,1.20000007e-003
,,,-7.95060000e-006,-1.20000003e-003
,,,-7.95040000e-006,1.20000007e-003
,,,-7.95020000e-006,2.40000011e-003
,,,-7.95000000e-006,-1.20000003e-003
,,,-7.94980000e-006,1.20000007e-003
,,,-7.94960000e-006,1.20000007e-003
,,,-7.94940000e-006,1.20000007e-003
,,,-7.94920000e-006,1.20000007e-003
,,,-7.94900000e-006,1.86264515e-011
,,,-7.94880000e-006,1.20000007e-003
,,,-7.94860000e-006,1.86264515e-011
,,,-7.94840000e-006,-1.20000003e-003
,,,-7.94820000e-006,1.86264515e-011
,,,-7.94800000e-006,-1.20000003e-003
,,,-7.94780000e-006,1.20000007e-003
,,,-7.94760000e-006,-1.20000003e-003
,,,-7.94740000e-006,-1.20000003e-003
,,,-7.94720000e-006,1.86264515e-011
,,,-7.94700000e-006,-1.20000003e-003
,,,-7.94680000e-006,-1.20000003e-003
,,,-7.94660000e-006,-1.20000003e-003
,,,-7.94640000e-006,-1.20000003e-003
,,,-7.94620000e-006,-2.40000008e-003
,,,-7.94600000e-006,-1.20000003e-003
,,,-7.94580000e-006,-2.40000008e-003
,,,-7.94560000e-006,-1.20000003e-003
,,,-7.94540000e-006,1.20000007e-003
,,,-7.94520000e-006,-2.40000008e-003
,,,-7.94500000e-006,-1.20000003e-003
,,,-7.94480000e-006,1.86264515e-011
,,,-7.94460000e-006,-1.20000003e-003
,,,-7.94440000e-006,1.86264515e-011
,,,-7.94420000e-006,-1.20000003e-003
,,,-7.94400000e-006,1.20000007e-003
,,,-7.94380000e-006,1.20000007e-003
,,,-7.94360000e-006,1.86264515e-011
,,,-7.94340000e-006,2.40000011e-003
,,,-7.94320000e-006,1.86264515e-011
,,,-7.94300000e-006,1.86264515e-011
,,,-7.94280000e-006,-1.20000003e-003
,,,-7.94260000e-006,1.86264515e-011
,,,-7.94240000e-006,1.86264515e-011
,,,-7.94220000e-006,1.86264515e-011
,,,-7.94200000e-006,-1.20000003e-003
,,,-7.94180000e-006,-3.60000012e-003
,,,-7.94160000e-006,-1.20000003e-003
,,,-7.94140000e-006,-1.20000003e-003
,,,-7.94120000e-006,-2.40000008e-003
,,,-7.94100000e-006,-1.20000003e-003
,,,-7.94080000e-006,1.86264515e-011
,,,-7.94060000e-006,-2.40000008e-003
,,,-7.94040000e-006,1.86264515e-011
,,,-7.94020000e-006,1.86264515e-011
,,,-7.94000000e-006,-2.40000008e-003
,,,-7.93980000e-006,1.20000007e-003
,,,-7.93960000e-006,-1.20000003e-003
,,,-7.93940000e-006,-1.20000003e-003
,,,-7.93920000e-006,1.86264515e-011
,,,-7.93900000e-006,-1.20000003e-003
,,,-7.93880000e-006,-1.20000003e-003
,,,-7.93860000e-006,-2.40000008e-003
,,,-7.93840000e-006,1.86264515e-011
,,,-7.93820000e-006,1.20000007e-003
,,,-7.93800000e-006,-1.20000003e-003
,,,-7.93780000e-006,-1.20000003e-003
,,,-7.93760000e-006,-1.20000003e-003
,,,-7.93740000e-006,1.20000007e-003
,,,-7.93720000e-006,-1.20000003e-003
,,,-7.93700000e-006,1.86264515e-011
,,,-7.93680000e-006,1.20000007e-003
,,,-7.93660000e-006,-1.20000003e-003
,,,-7.93640000e-006,1.86264515e-011
,,,-7.93620000e-006,1.20000007e-003
,,,-7.93600000e-006,-1.20000003e-003
,,,-7.93580000e-006,-2.40000008e-003
,,,-7.93560000e-006,1.86264515e-011
,,,-7.93540000e-006,1.20000007e-003
,,,-7.93520000e-006,-1.20000003e-003
,,,-7.93500000e-006,1.86264515e-011
,,,-7.93480000e-006,-1.20000003e-003
,,,-7.93460000e-006,-1.20000003e-003
,,,-7.93440000e-006,1.20000007e-003
,,,-7.93420000e-006,1.86264515e-011
,,,-7.93400000e-006,-2.40000008e-003
,,,-7.93380000e-006,1.20000007e-003
,,,-7.93360000e-006,1.86264515e-011
,,,-7.93340000e-006,-2.40000008e-003
,,,-7.93320000e-006,1.86264515e-011
,,,-7.93300000e-006,-1.20000003e-003
,,,-7.93280000e-006,1.86264515e-011
,,,-7.93260000e-006,-1.20000003e-003
,,,-7.93240000e-006,-2.40000008e-003
,,,-7.93220000e-006,1.20000007e-003
,,,-7.93200000e-006,3.60000016e-003
,,,-7.93180000e-006,1.20000007e-003
,,,-7.93160000e-006,-2.40000008e-003
,,,-7.93140000e-006,-2.40000008e-003
,,,-7.93120000e-006,-1.20000003e-003
,,,-7.93100000e-006,-1.20000003e-003
,,,-7.93080000e-006,1.86264515e-011
,,,-7.93060000e-006,-1.20000003e-003
,,,-7.93040000e-006,-1.20000003e-003
,,,-7.93020000e-006,1.86264515e-011
,,,-7.93000000e-006,1.86264515e-011
,,,-7.92980000e-006,1.20000007e-003
,,,-7.92960000e-006,-1.20000003e-003
,,,-7.92940000e-006,2.40000011e-003
,,,-7.92920000e-006,1.20000007e-003
,,,-7.92900000e-006,1.20000007e-003
,,,-7.92880000e-006,1.20000007e-003
,,,-7.92860000e-006,1.86264515e-011
,,,-7.92840000e-006,1.20000007e-003
,,,-7.92820000e-006,2.40000011e-003
,,,-7.92800000e-006,1.20000007e-003
,,,-7.92780000e-006,1.20000007e-003
,,,-7.92760000e-006,1.86264515e-011
,,,-7.92740000e-006,1.20000007e-003
,,,-7.92720000e-006,1.20000007e-003
,,,-7.92700000e-006,-2.40000008e-003
,,,-7.92680000e-006,-2.40000008e-003
,,,-7.92660000e-006,1.20000007e-003
,,,-7.92640000e-006,1.86264515e-011
,,,-7.92620000e-006,-1.20000003e-003
,,,-7.92600000e-006,1.20000007e-003
,,,-7.92580000e-006,-1.20000003e-003
,,,-7.92560000e-006,-1.20000003e-003
,,,-7.92540000e-006,-1.20000003e-003
,,,-7.92520000e-006,-2.40000008e-003
,,,-7.92500000e-006,-1.20000003e-003
,,,-7.92480000e-006,-1.20000003e-003
,,,-7.92460000e-006,-2.40000008e-003
,,,-7.92440000e-006,1.86264515e-011
,,,-7.92420000e-006,1.20000007e-003
,,,-7.92400000e-006,1.86264515e-011
,,,-7.92380000e-006,-1.20000003e-003
,,,-7.92360000e-006,1.86264515e-011
,,,-7.92340000e-006,1.86264515e-011
,,,-7.92320000e-006,1.20000007e-003
,,,-7.92300000e-006,1.20000007e-003
,,,-7.92280000e-006,1.20000007e-003
,,,-7.92260000e-006,1.20000007e-003
,,,-7.92240000e-006,2.40000011e-003
,,,-7.92220000e-006,1.20000007e-003
,,,-7.92200000e-006,1.20000007e-003
,,,-7.92180000e-006,1.86264515e-011
,,,-7.92160000e-006,1.20000007e-003
,,,-7.92140000e-006,1.20000007e-003
,,,-7.92120000e-006,1.20000007e-003
,,,-7.92100000e-006,1.20000007e-003
,,,-7.92080000e-006,1.20000007e-003
,,,-7.92060000e-006,1.20000007e-003
,,,-7.92040000e-006,1.20000007e-003
,,,-7.92020000e-006,-1.20000003e-003
,,,-7.92000000e-006,-1.20000003e-003
,,,-7.91980000e-006,1.20000007e-003
,,,-7.91960000e-006,-1.20000003e-003
,,,-7.91940000e-006,-1.20000003e-003
,,,-7.91920000e-006,-2.40000008e-003
,,,-7.91900000e-006,-1.20000003e-003
,,,-7.91880000e-006,-1.20000003e-003
,,,-7.91860000e-006,-1.20000003e-003
,,,-7.91840000e-006,1.86264515e-011
,,,-7.91820000e-006,-1.20000003e-003
,,,-7.91800000e-006,1.20000007e-003
,,,-7.91780000e-006,1.86264515e-011
,,,-7.91760000e-006,-1.20000003e-003
,,,-7.91740000e-006,2.40000011e-003
,,,-7.91720000e-006,1.20000007e-003
,,,-7.91700000e-006,1.20000007e-003
,,,-7.91680000e-006,2.40000011e-003
,,,-7.91660000e-006,1.20000007e-003
,,,-7.91640000e-006,1.20000007e-003
,,,-7.91620000e-006,1.20000007e-003
,,,-7.91600000e-006,1.86264515e-011
,,,-7.91580000e-006,1.20000007e-003
,,,-7.91560000e-006,2.40000011e-003
,,,-7.91540000e-006,1.20000007e-003
,,,-7.91520000e-006,1.20000007e-003
,,,-7.91500000e-006,1.86264515e-011
,,,-7.91480000e-006,1.86264515e-011
,,,-7.91460000e-006,1.20000007e-003
,,,-7.91440000e-006,-1.20000003e-003
,,,-7.91420000e-006,1.86264515e-011
,,,-7.91400000e-006,1.86264515e-011
,,,-7.91380000e-006,-1.20000003e-003
,,,-7.91360000e-006,-2.40000008e-003
,,,-7.91340000e-006,-3.60000012e-003
,,,-7.91320000e-006,-1.20000003e-003
,,,-7.91300000e-006,-1.20000003e-003
,,,-7.91280000e-006,-1.20000003e-003
,,,-7.91260000e-006,-1.20000003e-003
,,,-7.91240000e-006,-2.40000008e-003
,,,-7.91220000e-006,1.20000007e-003
,,,-7.91200000e-006,1.20000007e-003
,,,-7.91180000e-006,-2.40000008e-003
,,,-7.91160000e-006,2.40000011e-003
,,,-7.91140000e-006,2.40000011e-003
,,,-7.91120000e-006,-1.20000003e-003
,,,-7.91100000e-006,2.40000011e-003
,,,-7.91080000e-006,1.20000007e-003
,,,-7.91060000e-006,1.86264515e-011
,,,-7.91040000e-006,1.20000007e-003
,,,-7.91020000e-006,2.40000011e-003
,,,-7.91000000e-006,1.20000007e-003
,,,-7.90980000e-006,1.86264515e-011
,,,-7.90960000e-006,1.20000007e-003
,,,-7.90940000e-006,1.86264515e-011
,,,-7.90920000e-006,1.86264515e-011
,,,-7.90900000e-006,1.20000007e-003
,,,-7.90880000e-006,1.20000007e-003
,,,-7.90860000e-006,1.86264515e-011
,,,-7.90840000e-006,-2.40000008e-003
,,,-7.90820000e-006,-2.40000008e-003
,,,-7.90800000e-006,1.86264515e-011
,,,-7.90780000e-006,-2.40000008e-003
,,,-7.90760000e-006,1.86264515e-011
,,,-7.90740000e-006,1.86264515e-011
,,,-7.90720000e-006,-2.40000008e-003
,,,-7.90700000e-006,-1.20000003e-003
,,,-7.90680000e-006,1.86264515e-011
,,,-7.90660000e-006,-2.40000008e-003
,,,-7.90640000e-006,1.86264515e-011
,,,-7.90620000e-006,-1.20000003e-003
,,,-7.90600000e-006,-1.20000003e-003
,,,-7.90580000e-006,1.20000007e-003
,,,-7.90560000e-006,1.86264515e-011
,,,-7.90540000e-006,1.20000007e-003
,,,-7.90520000e-006,1.86264515e-011
,,,-7.90500000e-006,1.86264515e-011
,,,-7.90480000e-006,1.20000007e-003
,,,-7.90460000e-006,1.86264515e-011
,,,-7.90440000e-006,1.20000007e-003
,,,-7.90420000e-006,-1.20000003e-003
,,,-7.90400000e-006,1.86264515e-011
,,,-7.90380000e-006,1.20000007e-003
,,,-7.90360000e-006,1.20000007e-003
,,,-7.90340000e-006,1.86264515e-011
,,,-7.90320000e-006,-2.40000008e-003
,,,-7.90300000e-006,1.86264515e-011
,,,-7.90280000e-006,2.40000011e-003
,,,-7.90260000e-006,-1.20000003e-003
,,,-7.90240000e-006,1.20000007e-003
,,,-7.90220000e-006,1.20000007e-003
,,,-7.90200000e-006,1.86264515e-011
,,,-7.90180000e-006,1.20000007e-003
,,,-7.90160000e-006,1.86264515e-011
,,,-7.90140000e-006,1.20000007e-003
,,,-7.90120000e-006,1.86264515e-011
,,,-7.90100000e-006,1.86264515e-011
,,,-7.90080000e-006,1.20000007e-003
,,,-7.90060000e-006,-1.20000003e-003
,,,-7.90040000e-006,1.20000007e-003
,,,-7.90020000e-006,1.20000007e-003
,,,-7.90000000e-006,1.86264515e-011
,,,-7.89980000e-006,2.40000011e-003
,,,-7.89960000e-006,1.86264515e-011
,,,-7.89940000e-006,-1.20000003e-003
,,,-7.89920000e-006,1.86264515e-011
,,,-7.89900000e-006,1.86264515e-011
,,,-7.89880000e-006,-1.20000003e-003
,,,-7.89860000e-006,1.86264515e-011
,,,-7.89840000e-006,1.86264515e-011
,,,-7.89820000e-006,-1.20000003e-003
,,,-7.89800000e-006,-2.40000008e-003
,,,-7.89780000e-006,1.86264515e-011
,,,-7.89760000e-006,-1.20000003e-003
,,,-7.89740000e-006,1.86264515e-011
,,,-7.89720000e-006,1.20000007e-003
,,,-7.89700000e-006,1.86264515e-011
,,,-7.89680000e-006,1.86264515e-011
,,,-7.89660000e-006,2.40000011e-003
,,,-7.89640000e-006,1.86264515e-011
,,,-7.89620000e-006,-1.20000003e-003
,,,-7.89600000e-006,-2.40000008e-003
,,,-7.89580000e-006,1.86264515e-011
,,,-7.89560000e-006,2.40000011e-003
,,,-7.89540000e-006,1.20000007e-003
,,,-7.89520000e-006,2.40000011e-003
,,,-7.89500000e-006,1.20000007e-003
,,,-7.89480000e-006,1.20000007e-003
,,,-7.89460000e-006,2.40000011e-003
,,,-7.89440000e-006,1.20000007e-003
,,,-7.89420000e-006,2.40000011e-003
,,,-7.89400000e-006,1.20000007e-003
,,,-7.89380000e-006,1.20000007e-003
,,,-7.89360000e-006,1.86264515e-011
,,,-7.89340000e-006,-1.20000003e-003
,,,-7.89320000e-006,1.86264515e-011
,,,-7.89300000e-006,1.86264515e-011
,,,-7.89280000e-006,1.20000007e-003
,,,-7.89260000e-006,1.86264515e-011
,,,-7.89240000e-006,-1.20000003e-003
,,,-7.89220000e-006,-1.20000003e-003
,,,-7.89200000e-006,-1.20000003e-003
,,,-7.89180000e-006,1.20000007e-003
,,,-7.89160000e-006,1.86264515e-011
,,,-7.89140000e-006,1.86264515e-011
,,,-7.89120000e-006,1.86264515e-011
,,,-7.89100000e-006,-1.20000003e-003
,,,-7.89080000e-006,-3.60000012e-003
,,,-7.89060000e-006,-2.40000008e-003
,,,-7.89040000e-006,1.86264515e-011
,,,-7.89020000e-006,-1.20000003e-003
,,,-7.89000000e-006,1.86264515e-011
,,,-7.88980000e-006,1.20000007e-003
,,,-7.88960000e-006,2.40000011e-003
,,,-7.88940000e-006,1.20000007e-003
,,,-7.88920000e-006,1.20000007e-003
,,,-7.88900000e-006,2.40000011e-003
,,,-7.88880000e-006,2.40000011e-003
,,,-7.88860000e-006,3.60000016e-003
,,,-7.88840000e-006,4.80000021e-003
,,,-7.88820000e-006,3.60000016e-003
,,,-7.88800000e-006,2.40000011e-003
,,,-7.88780000e-006,2.40000011e-003
,,,-7.88760000e-006,1.20000007e-003
,,,-7.88740000e-006,1.86264515e-011
,,,-7.88720000e-006,1.20000007e-003
